…
#### [GADM](https://gadm.org)

```
help?> GADM
  Provides functions to (down)load data from the GADM database.

  Please check the docstring of each function for more details:

    •  GADM.get

    •  GADM.codes

julia> GADM.get("BRA", depth=1)
27×12 GeoTable over 27 GeometrySet
┌─────────────┬─────────────┬─────────────┬────────────────────┬──────────────────────┬─────────────┬──────────────────┬──────────────────┬─────────────┬─────────────┬───────
│    GID_1    │    GID_0    │   COUNTRY   │       NAME_1       │      VARNAME_1       │  NL_NAME_1  │      TYPE_1      │    ENGTYPE_1     │    CC_1     │   HASC_1    │    I ⋯
│ Categorical │ Categorical │ Categorical │    Categorical     │     Categorical      │ Categorical │   Categorical    │   Categorical    │ Categorical │ Categorical │ Cate ⋯
│  [NoUnits]  │  [NoUnits]  │  [NoUnits]  │     [NoUnits]      │      [NoUnits]       │  [NoUnits]  │    [NoUnits]     │    [NoUnits]     │  [NoUnits]  │  [NoUnits]  │  [No ⋯
├─────────────┼─────────────┼─────────────┼────────────────────┼──────────────────────┼─────────────┼──────────────────┼──────────────────┼─────────────┼─────────────┼───────
│   BRA.1_1   │     BRA     │   Brazil    │        Acre        │          NA          │     NA      │      Estado      │      State       │     NA      │    BR.AC    │    B ⋯
│   BRA.2_1   │     BRA     │   Brazil    │      Alagoas       │          NA          │     NA      │      Estado      │      State       │     NA      │    BR.AL    │    B ⋯
│   BRA.3_1   │     BRA     │   Brazil    │       Amapá        │          NA          │     NA      │      Estado      │      State       │     NA      │    BR.AP    │      ⋯
│   BRA.4_1   │     BRA     │   Brazil    │      Amazonas      │       Amazone        │     NA      │      Estado      │      State       │     NA      │    BR.AM    │    B ⋯
│   BRA.5_1   │     BRA     │   Brazil    │       Bahia        │         Ba¡a         │     NA      │      Estado      │      State       │     NA      │    BR.BA    │    B ⋯
│   BRA.6_1   │     BRA     │   Brazil    │       Ceará        │          NA          │     NA      │      Estado      │      State       │     NA      │    BR.CE    │      ⋯
│   BRA.7_1   │     BRA     │   Brazil    │  Distrito Federal  │          NA          │     NA      │ Distrito Federal │ Federal District │     NA      │    BR.DF    │    B ⋯
│   BRA.8_1   │     BRA     │   Brazil    │   Espírito Santo   │    Espiritu Santo    │     NA      │      Estado      │      State       │     NA      │    BR.ES    │      ⋯
│   BRA.9_1   │     BRA     │   Brazil    │       Goiás        │     Goiáz|Goyáz      │     NA      │      Estado      │      State       │     NA      │    BR.GO    │      ⋯
│  BRA.10_1   │     BRA     │   Brazil    │      Maranhão      │ São Luíz de Maranhão │     NA      │      Estado      │      State       │     NA      │    BR.MA    │      ⋯
│  BRA.12_1   │     BRA     │   Brazil    │    Mato Grosso     │     Matto Grosso     │     NA      │      Estado      │      State       │     NA      │    BR.MT    │    B ⋯
│      ⋮      │      ⋮      │      ⋮      │         ⋮          │          ⋮           │      ⋮      │        ⋮         │        ⋮         │      ⋮      │      ⋮      │      ⋱
└─────────────┴─────────────┴─────────────┴────────────────────┴──────────────────────┴─────────────┴──────────────────┴──────────────────┴─────────────┴─────────────┴───────
                                                                                                                                                 2 columns and 16 rows omitted
```
…
    •  NaturalEarth.oceanbottom

    •  NaturalEarth.shadedrelief

    •  NaturalEarth.grayearth

    •  NaturalEarth.usmanualshadedrelief

    •  NaturalEarth.manualshadedrelief

    •  NaturalEarth.prismashadedrelief

julia> NaturalEarth.countries()
258×169 GeoTable over 258 GeometrySet
┌─────────────────┬─────────────┬─────────────┬────────────────┬─────────────┬─────────────┬─────────────┬───────────────────┬─────────────┬──────────────────────────────┬───
│   featurecla    │  scalerank  │  LABELRANK  │   SOVEREIGNT   │   SOV_A3    │  ADM0_DIF   │    LEVEL    │       TYPE        │     TLC     │            ADMIN             │  ⋯
│   Categorical   │ Categorical │ Categorical │  Categorical   │ Categorical │ Categorical │ Categorical │    Categorical    │ Categorical │         Categorical          │  ⋯
│    [NoUnits]    │  [NoUnits]  │  [NoUnits]  │   [NoUnits]    │  [NoUnits]  │  [NoUnits]  │  [NoUnits]  │     [NoUnits]     │  [NoUnits]  │          [NoUnits]           │  ⋯
├─────────────────┼─────────────┼─────────────┼────────────────┼─────────────┼─────────────┼─────────────┼───────────────────┼─────────────┼──────────────────────────────┼───
│ Admin-0 country │      0      │      2      │   Indonesia    │     IDN     │      0      │      2      │ Sovereign country │      1      │          Indonesia           │  ⋯
│ Admin-0 country │      0      │      3      │    Malaysia    │     MYS     │      0      │      2      │ Sovereign country │      1      │           Malaysia           │  ⋯
│ Admin-0 country │      0      │      2      │     Chile      │     CHL     │      0      │      2      │ Sovereign country │      1      │            Chile             │  ⋯
│ Admin-0 country │      0      │      3      │    Bolivia     │     BOL     │      0      │      2      │ Sovereign country │      1      │           Bolivia            │  ⋯
│ Admin-0 country │      0      │      2      │      Peru      │     PER     │      0      │      2      │ Sovereign country │      1      │             Peru             │  ⋯
│ Admin-0 country │      0      │      2      │   Argentina    │     ARG     │      0      │      2      │ Sovereign country │      1      │          Argentina           │  ⋯
│ Admin-0 country │      3      │      3      │ United Kingdom │     GB1     │      1      │      2      │    Dependency     │      1      │ Dhekelia Sovereign Base Area │  ⋯
│ Admin-0 country │      1      │      5      │     Cyprus     │     CYP     │      0      │      2      │ Sovereign country │      1      │            Cyprus            │  ⋯
│ Admin-0 country │      0      │      2      │     India      │     IND     │      0      │      2      │ Sovereign country │      1      │            India             │  ⋯
│ Admin-0 country │      0      │      2      │     China      │     CH1     │      1      │      2      │      Country      │      1      │            China             │  ⋯
│ Admin-0 country │      0      │      4      │     Israel     │     IS1     │      1      │      2      │     Disputed      │      1      │            Israel            │  ⋯
│        ⋮        │      ⋮      │      ⋮      │       ⋮        │      ⋮      │      ⋮      │      ⋮      │         ⋮         │      ⋮      │              ⋮               │  ⋱
└─────────────────┴─────────────┴─────────────┴────────────────┴─────────────┴─────────────┴─────────────┴───────────────────┴─────────────┴──────────────────────────────┴───
                                                                                                                                              159 columns and 247 rows omitted

julia> NaturalEarth.coastlines()
4133×4 GeoTable over 4133 GeometrySet
┌─────────────┬─────────────┬────────────┬───────────────────────────────┐
│ featurecla  │  scalerank  │  min_zoom  │           geometry            │
│ Categorical │ Categorical │ Continuous │             Multi             │
│  [NoUnits]  │  [NoUnits]  │ [NoUnits]  │ 🖈 GeodeticLatLon{WGS84Latest} │
├─────────────┼─────────────┼────────────┼───────────────────────────────┤
│  Coastline  │      0      │    0.0     │         Multi(1×Rope)         │
│  Coastline  │      0      │    0.0     │         Multi(1×Rope)         │
│  Coastline  │      6      │    5.0     │         Multi(1×Ring)         │
│  Coastline  │      0      │    0.0     │         Multi(1×Rope)         │
│  Coastline  │      0      │    0.0     │         Multi(1×Rope)         │
│  Coastline  │      6      │    5.0     │         Multi(1×Ring)         │
│  Coastline  │      5      │    3.0     │         Multi(1×Ring)         │
│  Coastline  │      5      │    3.0     │         Multi(1×Ring)         │
│  Coastline  │      6      │    6.0     │         Multi(1×Ring)         │
│  Coastline  │      6      │    5.0     │         Multi(1×Ring)         │
│  Coastline  │      6      │    5.0     │         Multi(1×Ring)         │
│      ⋮      │      ⋮      │     ⋮      │               ⋮               │
└─────────────┴─────────────┴────────────┴───────────────────────────────┘
                                                         4122 rows omitted
```
…
